/home/denver/Workspace/Java_projects/I-Teco/task-manager-sp-03/src/main/java/ru/ermakov/taskmanager/dto/ProjectDTO.java
/home/denver/Workspace/Java_projects/I-Teco/task-manager-sp-03/src/main/java/ru/ermakov/taskmanager/service/TaskService.java
/home/denver/Workspace/Java_projects/I-Teco/task-manager-sp-03/src/main/java/ru/ermakov/taskmanager/enumerate/RoleType.java
/home/denver/Workspace/Java_projects/I-Teco/task-manager-sp-03/src/main/java/ru/ermakov/taskmanager/model/AbstractDeal.java
/home/denver/Workspace/Java_projects/I-Teco/task-manager-sp-03/src/main/java/ru/ermakov/taskmanager/repository/AbstractRepository.java
/home/denver/Workspace/Java_projects/I-Teco/task-manager-sp-03/src/main/java/ru/ermakov/taskmanager/config/WebConfig.java
/home/denver/Workspace/Java_projects/I-Teco/task-manager-sp-03/src/main/java/ru/ermakov/taskmanager/dto/TaskDTO.java
/home/denver/Workspace/Java_projects/I-Teco/task-manager-sp-03/src/main/java/ru/ermakov/taskmanager/util/TaskDTOConvertUtil.java
/home/denver/Workspace/Java_projects/I-Teco/task-manager-sp-03/src/main/java/ru/ermakov/taskmanager/repository/ProjectRepository.java
/home/denver/Workspace/Java_projects/I-Teco/task-manager-sp-03/src/main/java/ru/ermakov/taskmanager/model/Task.java
/home/denver/Workspace/Java_projects/I-Teco/task-manager-sp-03/src/main/java/ru/ermakov/taskmanager/controller/ProjectController.java
/home/denver/Workspace/Java_projects/I-Teco/task-manager-sp-03/src/main/java/ru/ermakov/taskmanager/service/ProjectService.java
/home/denver/Workspace/Java_projects/I-Teco/task-manager-sp-03/src/main/java/ru/ermakov/taskmanager/service/AbstractService.java
/home/denver/Workspace/Java_projects/I-Teco/task-manager-sp-03/src/main/java/ru/ermakov/taskmanager/model/AbstractModel.java
/home/denver/Workspace/Java_projects/I-Teco/task-manager-sp-03/src/main/java/ru/ermakov/taskmanager/api/repository/ITaskRepository.java
/home/denver/Workspace/Java_projects/I-Teco/task-manager-sp-03/src/main/java/ru/ermakov/taskmanager/controller/AppController.java
/home/denver/Workspace/Java_projects/I-Teco/task-manager-sp-03/src/main/java/ru/ermakov/taskmanager/api/service/IProjectService.java
/home/denver/Workspace/Java_projects/I-Teco/task-manager-sp-03/src/main/java/ru/ermakov/taskmanager/dto/AbstractDealDTO.java
/home/denver/Workspace/Java_projects/I-Teco/task-manager-sp-03/src/main/java/ru/ermakov/taskmanager/repository/TaskRepository.java
/home/denver/Workspace/Java_projects/I-Teco/task-manager-sp-03/src/main/java/ru/ermakov/taskmanager/api/service/ITaskService.java
/home/denver/Workspace/Java_projects/I-Teco/task-manager-sp-03/src/main/java/ru/ermakov/taskmanager/api/repository/IAbstractRepository.java
/home/denver/Workspace/Java_projects/I-Teco/task-manager-sp-03/src/main/java/ru/ermakov/taskmanager/config/AppInitializer.java
/home/denver/Workspace/Java_projects/I-Teco/task-manager-sp-03/src/main/java/ru/ermakov/taskmanager/model/Project.java
/home/denver/Workspace/Java_projects/I-Teco/task-manager-sp-03/src/main/java/ru/ermakov/taskmanager/controller/TaskController.java
/home/denver/Workspace/Java_projects/I-Teco/task-manager-sp-03/src/main/java/ru/ermakov/taskmanager/dto/AbstractDTO.java
/home/denver/Workspace/Java_projects/I-Teco/task-manager-sp-03/src/main/java/ru/ermakov/taskmanager/util/ProjectDTOConvertUtil.java
/home/denver/Workspace/Java_projects/I-Teco/task-manager-sp-03/src/main/java/ru/ermakov/taskmanager/enumerate/ReadinessStatus.java
/home/denver/Workspace/Java_projects/I-Teco/task-manager-sp-03/src/main/java/ru/ermakov/taskmanager/api/repository/IProjectRepository.java
